<svg width="32" height="32" viewBox="0 0 32 32" fill="none" xmlns="http://www.w3.org/2000/svg">
<circle cx="16" cy="16" r="15.5" fill="#E3D6FF" stroke="#7759C2"/>
<path d="M16.2576 16L16.2576 -6.99382e-07C7.42101 -3.13124e-07 0.257568 7.16344 0.257568 16L16.2576 16Z" fill="#E3D6FF"/>
<line x1="15.7576" y1="16" x2="15.7576" y2="1" stroke="#7759C2"/>
<path d="M15.7576 16L4.99243 5.26514" stroke="#7759C2" stroke-width="0.75"/>
<path d="M13.2576 16.5L3.5 6.5" stroke="#7759C2" stroke-width="0.75"/>
<path d="M10.2576 16.5L2.5 8.5" stroke="#7759C2" stroke-width="0.75"/>
<path d="M7.25757 16.5L1.5 10.5" stroke="#7759C2" stroke-width="0.75"/>
<path d="M4.25757 16.5L0.992431 13.2651" stroke="#7759C2" stroke-width="0.75"/>
<path d="M15.904 13.3535L6.75757 4" stroke="#7759C2" stroke-width="0.75"/>
<path d="M15.904 10.3535L8.25757 2.5" stroke="#7759C2" stroke-width="0.75"/>
<path d="M15.904 7.35352L10.2576 1.5" stroke="#7759C2" stroke-width="0.75"/>
<path d="M15.904 4.35352L12.7576 1" stroke="#7759C2" stroke-width="0.75"/>
<circle cx="16" cy="16" r="15.5" stroke="#7759C2"/>
<path d="M0 16C-3.86258e-07 24.8366 7.16344 32 16 32C24.8366 32 32 24.8366 32 16L0 16Z" fill="#7759C2"/>
<path d="M16 32C24.8366 32 32 24.8366 32 16C32 7.16344 24.8366 0 16 0V32Z" fill="#7759C2"/>
</svg>
