<svg width="252" height="24" viewBox="0 0 252 24" fill="none" xmlns="http://www.w3.org/2000/svg">
<g clip-path="url(#clip0_854_2323)">
<path d="M10.5054 5.50428C10.5054 5.50428 10.0022 7.95724 9.59338 9.37241L8.304 13.7446H12.7382L11.4803 9.37241C11.0714 7.95724 10.5683 5.50428 10.5683 5.50428H10.5054ZM14.0284 18.1481H7.01379L5.66152 22.8662H0L7.64359 0.377379H13.4309L21.0737 22.8662H15.4121L14.0284 18.1481ZM23.0003 0.378207H28.5674L34.795 10.8828C35.6756 12.3617 36.6828 14.7203 36.6828 14.7203H36.7448C36.7448 14.7203 36.4932 12.2979 36.4932 10.8828V0.378207H41.9975V22.867H36.4618L30.2028 12.3931C29.3222 10.9142 28.3159 8.55559 28.3159 8.55559H28.253C28.253 8.55559 28.5046 10.9771 28.5046 12.3931V22.867H23.0003V0.378207ZM56.597 0C62.1641 0 65.0259 3.1771 65.0259 3.1771L62.4786 7.32828C62.4786 7.32828 59.9619 5.03255 56.8486 5.03255C52.5393 5.03255 50.4943 8.20883 50.4943 11.4488C50.4943 14.7832 52.6966 18.211 56.8486 18.211C60.245 18.211 62.8246 15.4436 62.8246 15.4436L65.6549 19.4698C65.6549 19.4698 62.4786 23.2436 56.597 23.2436C49.5517 23.2436 44.8022 18.2425 44.8022 11.5746C44.8022 5.03255 49.8348 0 56.597 0V0ZM68.1443 0.378207H73.6486V9.37324H81.8268V0.378207H87.3302V22.867H81.8268V14.0599H73.6486V22.867H68.1443V0.378207ZM101.898 18.211C105.263 18.211 107.969 15.317 107.969 11.4803C107.969 7.8 105.263 5.03255 101.898 5.03255C98.5332 5.03255 95.8279 7.8 95.8279 11.4803C95.8279 15.317 98.5332 18.211 101.898 18.211ZM101.898 0C108.692 0 113.662 5.03255 113.662 11.4803C113.662 18.0852 108.692 23.2436 101.898 23.2436C95.1046 23.2436 90.1349 18.0852 90.1349 11.4803C90.1349 5.03255 95.1046 0 101.898 0V0ZM124.38 10.5683C126.142 10.5683 127.242 9.59338 127.242 7.80083C127.242 6.10262 126.613 5.09545 123.846 5.09545H121.99V10.5683H124.38ZM116.485 0.378207H124.318C126.613 0.378207 127.714 0.534621 128.69 0.912C131.237 1.8869 132.841 4.18345 132.841 7.4549C132.841 9.84497 131.709 12.456 129.476 13.5873V13.6502C129.476 13.6502 129.79 14.0599 130.325 15.0025L134.697 22.8662H128.564L124.569 15.2863H121.99V22.8662H116.485V0.378207ZM138.664 0.392276H141.974L147.132 12.552C147.641 13.7942 148.246 15.5768 148.246 15.5768H148.309C148.309 15.5768 148.914 13.7942 149.423 12.552L154.58 0.392276H157.891L159.705 22.867H156.586L155.472 8.70124C155.376 7.33241 155.44 5.39007 155.44 5.39007H155.376C155.376 5.39007 154.708 7.45903 154.167 8.70124L149.678 18.8235H146.877L142.42 8.70124C141.91 7.49131 141.21 5.32634 141.21 5.32634H141.146C141.146 5.32634 141.179 7.33241 141.084 8.70124L140.001 22.867H136.85L138.664 0.392276ZM162.642 0.392276H175.694V3.13076H165.794V10.1652H173.848V12.9029H165.794V20.1294H176.234V22.867H162.642V0.392276ZM178.701 0.392276H181.821L191.816 15.0033C192.644 16.2132 193.694 18.2508 193.694 18.2508H193.758C193.758 18.2508 193.535 16.2447 193.535 15.0033V0.392276H196.687V22.867H193.599L183.571 8.28745C182.743 7.04524 181.693 5.00855 181.693 5.00855H181.63C181.63 5.00855 181.852 7.01379 181.852 8.28745V22.867H178.701V0.392276ZM228.035 11.6532V19.0361L234.377 15.3153L228.035 11.6532ZM226.647 22.8472C226.465 22.8473 226.284 22.8115 226.116 22.7418C225.947 22.672 225.794 22.5698 225.665 22.4409C225.536 22.312 225.434 22.159 225.364 21.9906C225.295 21.8221 225.259 21.6416 225.259 21.4593V10.0502L215.148 4.21324V19.0394L219.153 16.7313C219.472 16.5537 219.847 16.5086 220.199 16.6058C220.55 16.703 220.85 16.9347 221.032 17.2507C221.214 17.5668 221.264 17.9418 221.172 18.2946C221.079 18.6475 220.852 18.9498 220.538 19.1363L214.453 22.6436C214.242 22.7656 214.003 22.83 213.759 22.83C213.516 22.8301 213.276 22.7659 213.065 22.644C212.854 22.5221 212.679 22.3467 212.558 22.1355C212.436 21.9243 212.372 21.6848 212.373 21.4411V1.8091C212.373 1.56576 212.438 1.32684 212.56 1.11625C212.682 0.905655 212.857 0.730775 213.067 0.609106C213.278 0.487437 213.517 0.423246 213.761 0.422955C214.004 0.422664 214.243 0.486283 214.454 0.607448L225.259 6.84579V1.8091C225.259 1.56544 225.323 1.32608 225.445 1.11508C225.567 0.904077 225.742 0.728873 225.953 0.607082C226.164 0.485292 226.404 0.421207 226.647 0.421271C226.891 0.421335 227.13 0.485546 227.341 0.607448L250.717 14.1037C250.929 14.2255 251.104 14.4009 251.226 14.6121C251.348 14.8234 251.412 15.063 251.412 15.3069C251.411 15.5508 251.347 15.7904 251.225 16.0014C251.102 16.2123 250.926 16.3873 250.715 16.5087L240.045 22.6444C239.726 22.8207 239.351 22.8647 239 22.767C238.65 22.6693 238.351 22.4376 238.17 22.122C237.988 21.8064 237.938 21.4321 238.03 21.0798C238.122 20.7274 238.348 20.4254 238.661 20.2386L247.243 15.3029L228.035 4.21324V8.448L237.83 14.1037C238.041 14.2248 238.216 14.3991 238.338 14.6092C238.46 14.8192 238.524 15.0576 238.525 15.3005C238.526 15.5434 238.463 15.7822 238.342 15.9931C238.222 16.204 238.048 16.3795 237.838 16.5021L227.35 22.656C227.137 22.7813 226.894 22.8473 226.647 22.8472Z" fill="#D13732"/>
</g>
<defs>
<clipPath id="clip0_854_2323">
<rect width="251.586" height="24" fill="white"/>
</clipPath>
</defs>
</svg>
